.
├── ldk_realtek
│   └── realtek_v2.1.4
│       ├── linux-2.6.32.x
│       └── sdk
│       └── u-boot-2011.12
│
├── tplink
│   ├── buildroot-realtek
│   │   ├── arch
│   │   ├── board
│   │   ├── boot
│   │   ├── configs
│   │   ├── dl
│   │   ├── docs
│   │   ├── ext-tools
│   │   ├── fs
│   │   ├── linux
│   │   ├── package
│   │   ├── support
│   │   ├── system
│   │   ├── toolchain
│   │   ├── tplink
│   │   ├── Config.in
│   │   └── Makefile
│   └── src
│       ├── adapter
│       ├── app
│       ├── archive
│       ├── core
│       ├── include
│       ├── lib
│       ├── lkm
│       ├── monitor
│       ├── pal
│       ├── scm
│       └── ui
├── readme.txt
└── tree.txt

33 directories, 4 files
